選択履歴・報酬履歴を説明変数としたロジスティック回帰
…
ここでは，デモとして第5章のコードgenerate_group_data_fqlearning.Rで作ったデータを読み込んでみます。ご自分で試される際は，ファイルのパスを適当なものに書き換えてください。

# データファイルの読み込み
dfraw <- read.table("./chapter5/data/simulation_dataFQlearning_group.csv", 
                   header = T, sep = ",")
# tibble型に変換 (data.frameの拡張)
dfraw <- as.tibble(dfraw)

# 必要な列だけ残す
dfs <- dfraw %>% 
  select(subject, trial, choice, reward)
print(dfs)

## # A tibble: 2,000 x 4
##    subject trial choice reward
##      <int> <int>  <int>  <int>
##  1       1     1      2      0
##  2       1     2      2      0
##  3       1     3      2      0
##  4       1     4      1      1
##  5       1     5      1      1
##  6       1     6      1      0
##  7       1     7      1      1
##  8       1     8      1      1
##  9       1     9      1      1
## 10       1    10      1      1
## # ... with 1,990 more rows

以下で，ラグデータをsubjectごとに追加したデータフレームdflagを作成します。

# subjectごとに上で定義したadd_lagを呼び出してlagを説明変数に追加
dflag <- dfs %>% 
  group_by(subject) %>% 
  do(add_lag(., rlag, clag))
print(dflag)

## # A tibble: 2,000 x 15
## # Groups:   subject [10]
##    subject trial choice reward    c0    c1    c2    c3    c4    c5    r1
##      <int> <int>  <int>  <int> <dbl> <dbl> <dbl> <dbl> <dbl> <dbl> <dbl>
##  1       1     1      2      0     0    NA    NA    NA    NA    NA    NA
##  2       1     2      2      0     0    -1    NA    NA    NA    NA     0
##  3       1     3      2      0     0    -1    -1    NA    NA    NA     0
##  4       1     4      1      1     1    -1    -1    -1    NA    NA     0
##  5       1     5      1      1     1     1    -1    -1    -1    NA     1
##  6       1     6      1      0     1     1     1    -1    -1    -1     1
##  7       1     7      1      1     1     1     1     1    -1    -1     0
##  8       1     8      1      1     1     1     1     1     1    -1     1
##  9       1     9      1      1     1     1     1     1     1     1     1
## 10       1    10      1      1     1     1     1     1     1     1     1
## # ... with 1,990 more rows, and 4 more variables: r2 <dbl>, r3 <dbl>,
## #   r4 <dbl>, r5 <dbl>
…
